{
  "name": "Plugin de Prueba",
  "version": "1.0.0",
  "release_date": "2015-09-26 10:00",
  "description": "This is a installable sample plugin for Cimahis Application.\nThis plugin shows basic plugin functions when is installed and also this is ON PURPOSE to show what Cimahis Plugin Manager can do.\nAs you can see this is a very long text, and it is shown all, isn't it?\n\n=)",
  "website": "http://bitbucket.com/cimahis/cimahis-plugins",
  "developers": [
    {
      "full_name": "Osval Reyes",
      "email": "osval1@uc.edu.ve"
    }
  ],
  "menu_actions": [
    {
      "menu": "/Plugins/Ejemplo/Cuadro de Mensaje",
      "action": "sample_plugin_message"
    },
    {
      "menu": "/Plugins/Ejemplo/Escribir en Barra de Estado",
      "action": "write_on_status_bar"
    },
    {
      "menu": "/Plugins/Ejemplo/Mensaje por consola",
      "action": "log_in_console"
    }
  ]
}
